================================================================================
ENCODING_ID 2
tp = 364
fp = 197
tn = 469
fn = 570
Recall = 0.389721627409
Precision = 0.648841354724
F1 Score = 0.486956521739

================================================================================
ENCODING_ID 5
tp = 280
fp = 26
tn = 252
fn = 1042
Recall = 0.211800302572
Precision = 0.915032679739
F1 Score = 0.34398034398

================================================================================
ENCODING_ID 10
tp = 241
fp = 100
tn = 715
fn = 544
Recall = 0.307006369427
Precision = 0.706744868035
F1 Score = 0.428063943162

================================================================================
ENCODING_ID 11
tp = 160
fp = 717
tn = 603
fn = 120
Recall = 0.571428571429
Precision = 0.18244013683
F1 Score = 0.276577355229

================================================================================
ENCODING_ID 16
tp = 0
fp = 308
tn = 1200
fn = 92
Recall = 0.0
Precision = 0.0
F1 Score = 0.0

================================================================================
ENCODING_ID 20
tp = 80
fp = 134
tn = 1286
fn = 100
Recall = 0.444444444444
Precision = 0.373831775701
F1 Score = 0.406091370558

================================================================================
ENCODING_ID 24
tp = 160
fp = 204
tn = 764
fn = 472
Recall = 0.253164556962
Precision = 0.43956043956
F1 Score = 0.321285140562

================================================================================
ENCODING_ID 27
tp = 221
fp = 99
tn = 376
fn = 904
Recall = 0.196444444444
Precision = 0.690625
F1 Score = 0.305882352941

