================================================================================
ENCODING_ID 2
tp = 326
fp = 9
tn = 657
fn = 608
Recall = 0.34903640257
Precision = 0.973134328358
F1 Score = 0.513790386131

================================================================================
ENCODING_ID 16
tp = 0
fp = 8
tn = 1500
fn = 92
Recall = 0.0
Precision = 0.0
F1 Score = 0.0

================================================================================
ENCODING_ID 20
tp = 20
fp = 19
tn = 1401
fn = 160
Recall = 0.111111111111
Precision = 0.512820512821
F1 Score = 0.182648401826

================================================================================
ENCODING_ID 24
tp = 284
fp = 21
tn = 947
fn = 348
Recall = 0.449367088608
Precision = 0.931147540984
F1 Score = 0.606189967983

